[gd_scene load_steps=6 format=2]

[ext_resource path="res://source/assets/image/bg_btn_lvl_1.png" type="Texture" id=1]
[ext_resource path="res://source/script/BigButton.gd" type="Script" id=2]
[ext_resource path="res://source/assets/image/btn_lvl_1.png" type="Texture" id=3]
[ext_resource path="res://source/assets/image/btn_back.png" type="Texture" id=4]
[ext_resource path="res://source/assets/image/btn_about.png" type="Texture" id=5]

[node name="BigButton" type="Control"]
anchor_right = 1.0
anchor_bottom = 1.0
script = ExtResource( 2 )
__meta__ = {
"_edit_use_anchors_": false
}

[node name="BG" type="TextureRect" parent="."]
anchor_right = 1.0
anchor_bottom = 1.0
texture = ExtResource( 1 )
expand = true
stretch_mode = 7

[node name="Btn" type="TextureRect" parent="."]
anchor_left = 0.5
anchor_top = 1.0
anchor_right = 0.5
anchor_bottom = 1.0
margin_left = -247.0
margin_top = -215.0
margin_right = 247.0
margin_bottom = -88.0
texture = ExtResource( 5 )

[node name="BtnBack" type="Button" parent="."]
anchor_left = 0.5
anchor_right = 0.5
margin_left = -101.5
margin_top = 40.0
margin_right = 101.5
margin_bottom = 112.0
focus_mode = 0
shortcut_in_tooltip = false
enabled_focus_mode = 0
flat = true
__meta__ = {
"_edit_group_": true
}

[node name="TextureRect" type="TextureRect" parent="BtnBack"]
anchor_left = 0.5
anchor_right = 0.5
margin_left = -127.5
margin_top = -19.0
margin_right = 127.5
margin_bottom = 115.0
texture = ExtResource( 4 )

[node name="BtnLvl" type="Button" parent="."]
anchor_left = 0.5
anchor_top = 0.5
anchor_right = 0.5
anchor_bottom = 0.5
margin_left = -306.0
margin_top = -418.0
margin_right = 306.0
margin_bottom = 354.0
focus_mode = 0
shortcut_in_tooltip = false
enabled_focus_mode = 0
flat = true
__meta__ = {
"_edit_group_": true
}

[node name="TextureRect" type="TextureRect" parent="BtnLvl"]
anchor_left = 0.5
anchor_top = 0.5
anchor_right = 0.5
anchor_bottom = 0.5
margin_left = -302.5
margin_top = -381.0
margin_right = 302.5
margin_bottom = 381.0
texture = ExtResource( 3 )

[node name="Tween" type="Tween" parent="."]
[connection signal="pressed" from="BtnBack" to="." method="_on_BtnBack_pressed"]
[connection signal="pressed" from="BtnLvl" to="." method="_on_BtnLvl_pressed"]
