[gd_scene load_steps=2 format=2]

[ext_resource path="res://source/script/Column.gd" type="Script" id=1]

[node name="Column" type="Control" groups=[
"column_group",
]]
script = ExtResource( 1 )
__meta__ = {
"_edit_use_anchors_": false
}
